class,alcohol,malic_acid,color_intensity,diluted_wines
1,14.23,1.71,5.64,3.92
1,13.2,1.78,4.38,3.4
1,13.16,2.36,5.68,3.17
1,14.37,1.95,7.8,3.45
1,13.24,2.59,4.32,2.93
1,14.2,1.76,6.75,2.85
1,14.39,1.87,5.25,3.58
2,12.37,0.94,1.95,1.82
2,12.33,1.1,3.27,1.67
2,12.64,1.36,5.75,1.59
2,13.67,1.25,3.8,2.46
2,12.37,1.13,4.45,2.87
2,12.17,1.45,2.95,2.23
2,12.37,1.21,4.6,2.3
3,12.86,1.35,4.1,1.29
3,12.88,2.99,5.4,1.42
3,12.81,2.31,5.7,1.36
3,12.7,3.55,5,1.29
3,12.51,1.24,5.45,1.51
3,12.6,2.46,7.1,1.58